{
  "data": [
    {
      "id": 1,
      "attributes": {
        "Date": "01/01/0925",
        "ordre_de_lecture": 1,
        "pingenerator": "56.61, 45.47",
        "GingkoBiloba": false,
        "Texte_microfiction": [
          {
            "type": "paragraph",
            "children": [
              {
                "type": "text",
                "text": "Le froid assomme toute vie, la neige éteint les derniers souffles."
              }
            ]
          }
        ]
      }
    },
    {
      "id": 26,
      "attributes": {
        "Date": "05/02/1909",
        "ordre_de_lecture": 1,
        "pingenerator": "79.04, 67.04",
        "GingkoBiloba": false,
        "Texte_microfiction": [
          {
            "type": "paragraph",
            "children": [
              {
                "type": "text",
                "text": "Ce n'est pas une heure pour être au lit,\nmais au moins je ne suis plus debout\nà faire semblant de m’agiter,\nà ne pas faire ce qu’il faut faire.\nLe monde me fait mal et les gens m'indiffèrent.\nLa vie bouge tout le temps. Moi jamais.\nPourquoi je retourne dans mon lit ?\nComment habiter autrement ?\nJe ne sais pas faire mon lit."
              }
            ]
          }
        ]
      }
    },
    {
      "id": 2,
      "attributes": {
        "Date": "01/01/2012",
        "ordre_de_lecture": 2,
        "pingenerator": "47.66, 54.59",
        "GingkoBiloba": false,
        "Texte_microfiction": [
          {
            "type": "paragraph",
            "children": [
              {
                "type": "text",
                "text": "- Bonne année !"
              }
            ]
          }
        ]
      }
    },
    {
      "id": 27,
      "attributes": {
        "Date": "05/02/2003",
        "ordre_de_lecture": 2,
        "pingenerator": "38.58, 47.74",
        "GingkoBiloba": false,
        "Texte_microfiction": [
          {
            "type": "paragraph",
            "children": [
              {
                "type": "text",
                "text": "- Tu avais déjà vu ce banc ?\n- Oui, il était juste là avant.\n- Non, il n’était pas là."
              }
            ]
          }
        ]
      }
    },
    {
      "id": 31,
      "attributes": {
        "Date": "05/02/2003",
        "ordre_de_lecture": 2,
        "pingenerator": null,
        "GingkoBiloba": false,
        "Texte_microfiction": [
          {
            "type": "paragraph",
            "children": [
              {
                "type": "text",
                "text": "- Alors tu as vu comme nous sommes assis ?\n- Oui, c’est comme ça que l’on doit s’assoir ici.\n- Donc il ne pouvait pas être là."
              }
            ]
          }
        ]
      }
    },
    {
      "id": 33,
      "attributes": {
        "Date": "05/02/2003",
        "ordre_de_lecture": 2,
        "pingenerator": null,
        "GingkoBiloba": false,
        "Texte_microfiction": [
          {
            "type": "paragraph",
            "children": [
              {
                "type": "text",
                "text": "- Ils auraient pu le retourner.\n- Je ne crois pas. On ne fait pas ça aux bancs.\n- Ils auraient pu lui offrir un coup de peinture.\n- Pourquoi ?\n- Pour faire croire aux autres que c’est sa place et pas celle d’un autre."
              }
            ]
          }
        ]
      }
    },
    {
      "id": 35,
      "attributes": {
        "Date": "05/02/2003",
        "ordre_de_lecture": 2,
        "pingenerator": null,
        "GingkoBiloba": false,
        "Texte_microfiction": [
          {
            "type": "paragraph",
            "children": [
              {
                "type": "text",
                "text": "-Mais à quelle heure on peut faire ça, repeindre un banc ?\n- C’est important ?\n- Faut viser un moment qui permet le temps de séchage.\n- Un moment pressé, quand les gens ne s’arrêtent pas.\n- Ou un jour chaud, pour que ça sèche plus vite.\n- J’espère qu’ils ne le déplaceront plus."
              }
            ]
          }
        ]
      }
    },
    {
      "id": 3,
      "attributes": {
        "Date": "01/01/1931",
        "ordre_de_lecture": 3,
        "pingenerator": "28.44, 20.83",
        "GingkoBiloba": false,
        "Texte_microfiction": [
          {
            "type": "paragraph",
            "children": [
              {
                "type": "text",
                "text": "- Bonne année !"
              }
            ]
          }
        ]
      }
    },
    {
      "id": 28,
      "attributes": {
        "Date": "01/02/1998",
        "ordre_de_lecture": 3,
        "pingenerator": "59.55, 81.04",
        "GingkoBiloba": false,
        "Texte_microfiction": [
          {
            "type": "paragraph",
            "children": [
              {
                "type": "text",
                "text": "- Calin, Calin viens, viens ici mon petit cœur, viens voir maman mon petit chien d’amour."
              }
            ]
          }
        ]
      }
    },
    {
      "id": 4,
      "attributes": {
        "Date": "01/01/2000",
        "ordre_de_lecture": 4,
        "pingenerator": "47.93, 56.92",
        "GingkoBiloba": false,
        "Texte_microfiction": [
          {
            "type": "paragraph",
            "children": [
              {
                "type": "text",
                "text": "- Je t’aime, je t’aime."
              }
            ]
          }
        ]
      }
    },
    {
      "id": 29,
      "attributes": {
        "Date": "05/02/2003",
        "ordre_de_lecture": 4,
        "pingenerator": "63.15, 36.07",
        "GingkoBiloba": false,
        "Texte_microfiction": [
          {
            "type": "paragraph",
            "children": [
              {
                "type": "text",
                "text": "- Il était où alors ?\n- Les traces dessus indiquent que les gens utilisaient plutôt le dossier côté rue aujourd’hui.\n- Et alors ?"
              }
            ]
          }
        ]
      }
    },
    {
      "id": 6,
      "attributes": {
        "Date": "01/01/1987",
        "ordre_de_lecture": 5,
        "pingenerator": "57.28, 70.46",
        "GingkoBiloba": false,
        "Texte_microfiction": [
          {
            "type": "paragraph",
            "children": [
              {
                "type": "text",
                "text": "- Foutez moi la paix !"
              }
            ]
          }
        ]
      }
    },
    {
      "id": 30,
      "attributes": {
        "Date": "05/02/1979",
        "ordre_de_lecture": 5,
        "pingenerator": "57.01, 52.72",
        "GingkoBiloba": false,
        "Texte_microfiction": [
          {
            "type": "paragraph",
            "children": [
              {
                "type": "text",
                "text": "- J’suis amoureux ! Regarde c’est elle là-bas en rouge, comment tu la trouves ?\n- Oh, tu sais, je vois mal de loin…"
              }
            ]
          }
        ]
      }
    },
    {
      "id": 32,
      "attributes": {
        "Date": "05/02/1979",
        "ordre_de_lecture": 5,
        "pingenerator": null,
        "GingkoBiloba": false,
        "Texte_microfiction": [
          {
            "type": "paragraph",
            "children": [
              {
                "type": "text",
                "text": "- Et sinon tu me rends mon argent quand ? \n- Quand j’serais marié."
              }
            ]
          }
        ]
      }
    },
    {
      "id": 34,
      "attributes": {
        "Date": "05/02/2011",
        "ordre_de_lecture": 5,
        "pingenerator": "48.33, 60.81",
        "GingkoBiloba": false,
        "Texte_microfiction": [
          {
            "type": "paragraph",
            "children": [
              {
                "type": "text",
                "text": "- Quand le temps ne passe pas, il est où ? se dit-elle, assise sur le banc."
              }
            ]
          }
        ]
      }
    },
    {
      "id": 7,
      "attributes": {
        "Date": "01/01/1895",
        "ordre_de_lecture": 6,
        "pingenerator": "30.57, 66.72",
        "GingkoBiloba": false,
        "Texte_microfiction": [
          {
            "type": "paragraph",
            "children": [
              {
                "type": "text",
                "text": "- Je vous souhaite à tous…"
              }
            ]
          }
        ]
      }
    },
    {
      "id": 36,
      "attributes": {
        "Date": "05/02/1983",
        "ordre_de_lecture": 6,
        "pingenerator": "24.83, 75.91",
        "GingkoBiloba": true,
        "Texte_microfiction": [
          {
            "type": "paragraph",
            "children": [
              {
                "type": "text",
                "text": "- Il fait un froid de gueux sur ce banc ! Heureusement que le gingko biloba."
              }
            ]
          }
        ]
      }
    },
    {
      "id": 8,
      "attributes": {
        "Date": "01/01/2037",
        "ordre_de_lecture": 7,
        "pingenerator": "68.09, 63.77",
        "GingkoBiloba": false,
        "Texte_microfiction": [
          {
            "type": "paragraph",
            "children": [
              {
                "type": "text",
                "text": "- Bonne année !"
              }
            ]
          }
        ]
      }
    },
    {
      "id": 9,
      "attributes": {
        "Date": "01/01/1998",
        "ordre_de_lecture": 8,
        "pingenerator": "34.58, 56.61",
        "GingkoBiloba": false,
        "Texte_microfiction": [
          {
            "type": "paragraph",
            "children": [
              {
                "type": "text",
                "text": "- Ecoute, t’avais qu’à pas mettre des talons !"
              }
            ]
          }
        ]
      }
    },
    {
      "id": 10,
      "attributes": {
        "Date": "01/01/2003",
        "ordre_de_lecture": 9,
        "pingenerator": "65.69, 58.79",
        "GingkoBiloba": false,
        "Texte_microfiction": [
          {
            "type": "paragraph",
            "children": [
              {
                "type": "text",
                "text": "- Fais un vœu !"
              }
            ]
          },
          {
            "type": "paragraph",
            "children": [
              {
                "type": "text",
                "text": "- Un quoi ?"
              }
            ]
          }
        ]
      }
    },
    {
      "id": 11,
      "attributes": {
        "Date": "01/01/1787",
        "ordre_de_lecture": 10,
        "pingenerator": "44.86, 61.28",
        "GingkoBiloba": false,
        "Texte_microfiction": [
          {
            "type": "paragraph",
            "children": [
              {
                "type": "text",
                "text": "- Rêvons grand, mes amis, rêvons grand ! "
              }
            ]
          }
        ]
      }
    },
    {
      "id": 12,
      "attributes": {
        "Date": "01/01/2021",
        "ordre_de_lecture": 11,
        "pingenerator": "17.76, 59.72",
        "GingkoBiloba": false,
        "Texte_microfiction": [
          {
            "type": "paragraph",
            "children": [
              {
                "type": "text",
                "text": "Les fêtes de fin d’années me donnent envie de pleurer. Noël, ça passe, je suis grande maintenant. Mais le premier de l’an ! Tous ces plats en trop, ces compliments menteurs, cette plate humeur festive, moi ça me donne envie de gerber. Je ne comprends pas. Ils disent que c'est justement un moyen de nous retrouver ! Mais pourquoi ? A cause de ce putain de calendrier, on affiche nos vies, qu est-ce que ça peut leur foutre qu’on réveillonne ou pas. Quand on n'a pas d'amis, pas d’famille, on aime autrement, mais tout seul. Merde alors."
              }
            ]
          }
        ]
      }
    },
    {
      "id": 13,
      "attributes": {
        "Date": "01/01/1978",
        "ordre_de_lecture": 12,
        "pingenerator": "70.09, 22.22",
        "GingkoBiloba": false,
        "Texte_microfiction": [
          {
            "type": "paragraph",
            "children": [
              {
                "type": "text",
                "text": "- Cinq, quatre, trois, deux, un…"
              }
            ]
          },
          {
            "type": "paragraph",
            "children": [
              {
                "type": "text",
                "text": "- T’es en retard !"
              }
            ]
          }
        ]
      }
    },
    {
      "id": 14,
      "attributes": {
        "Date": "01/01/2012",
        "ordre_de_lecture": 13,
        "pingenerator": "25.77, 84.00",
        "GingkoBiloba": false,
        "Texte_microfiction": [
          {
            "type": "paragraph",
            "children": [
              {
                "type": "text",
                "text": "Max fixe Nina. Avec leurs amis, ils viennent de faire le décompte à plein poumons, la tête lui tourne légèrement. "
              }
            ]
          }
        ]
      }
    },
    {
      "id": 16,
      "attributes": {
        "Date": "01/01/2012",
        "ordre_de_lecture": 13,
        "pingenerator": "82.78, 37.00",
        "GingkoBiloba": false,
        "Texte_microfiction": [
          {
            "type": "paragraph",
            "children": [
              {
                "type": "text",
                "text": "Cela fait un an que Nina n’est plus avec Julien. C’est facile à retenir, parce qu’ils ont commencé à sortir ensemble le 1er janvier 2010, ça a fait jaser dans la bande, s’afficher comme ça et se rouler des pelles devant tous leurs amis à la soirée du nouvel an. Max s’était que c’était juste un dérapage entre potes bourrés. Mais cela avait duré. Ironie du sort, Nina et Julien avaient rompu le 1er janvier 2011, de nouveau devant leur bande de postes, après une ultime dispute. L’esclandre avait failli gâcher la fête. Nina était partie en trombe, et Max était resté avec Julien, qui s’entêtait à vouloir célébrer son tout récent célibat en enchaînant les tournées de shots. Max avait pensé à Nina, errant sûrement dans la rue en pleurs. Il s’était imaginé la serrer dans ses bras, il… "
              }
            ]
          }
        ]
      }
    }
  ],
  "meta": {
    "pagination": {
      "page": 1,
      "pageSize": 25,
      "pageCount": 2,
      "total": 35
    }
  }
}